{
    "name": "News",
    "alias": "news",
    "description": "Module qu\u1ea3n l\u00fd News",
    "keywords": [],
    "active": 1,
    "order": 0,
    "providers": [
        "Modules\\News\\Providers\\NewsServiceProvider"
    ],
    "aliases": [],
    "files": [],
    "requires": []
}