{
    "name": "Booking",
    "alias": "booking",
    "description": "Module qu\u1ea3n l\u00fd Booking",
    "keywords": [],
    "active": 1,
    "order": 0,
    "providers": [
        "Modules\\Booking\\Providers\\BookingServiceProvider"
    ],
    "aliases": [],
    "files": [],
    "requires": []
}